<?xml version="1.0" encoding="UTF-8" standalone="no"?>
<svg
   xmlns:dc="http://purl.org/dc/elements/1.1/"
   xmlns:cc="http://creativecommons.org/ns#"
   xmlns:rdf="http://www.w3.org/1999/02/22-rdf-syntax-ns#"
   xmlns:svg="http://www.w3.org/2000/svg"
   xmlns="http://www.w3.org/2000/svg"
   xmlns:sodipodi="http://sodipodi.sourceforge.net/DTD/sodipodi-0.dtd"
   xmlns:inkscape="http://www.inkscape.org/namespaces/inkscape"
   version="1.1"
   id="VARG"
   x="0px"
   y="0px"
   width="106.80227"
   height="85"
   viewBox="0 0 106.80227 85"
   enable-background="new 0 0 306 44"
   xml:space="preserve"
   sodipodi:docname="colgpalm.svg"
   inkscape:version="0.92.4 (5da689c313, 2019-01-14)"><metadata
   id="metadata53"><rdf:RDF><cc:Work
       rdf:about=""><dc:format>image/svg+xml</dc:format><dc:type
         rdf:resource="http://purl.org/dc/dcmitype/StillImage" /></cc:Work></rdf:RDF></metadata><defs
   id="defs51" /><sodipodi:namedview
   pagecolor="#ffffff"
   bordercolor="#666666"
   borderopacity="1"
   objecttolerance="10"
   gridtolerance="10"
   guidetolerance="10"
   inkscape:pageopacity="0"
   inkscape:pageshadow="2"
   inkscape:window-width="1366"
   inkscape:window-height="705"
   id="namedview49"
   showgrid="false"
   inkscape:zoom="3.3368046"
   inkscape:cx="32.831826"
   inkscape:cy="15.436164"
   inkscape:window-x="-8"
   inkscape:window-y="-8"
   inkscape:window-maximized="1"
   inkscape:current-layer="g46" />
<g
   id="g46"
   transform="matrix(-1.451046,0,0,1.451046,133.40009,19.764208)">

<g
   id="g859"
   transform="matrix(1.3076923,0,0,1.3076923,-28.2873,-13.833158)"><g
     style="fill:#004394;fill-opacity:1"
     transform="matrix(-0.23702199,0,0,0.23702199,107.33993,39.182492)"
     id="g38">
<g
   style="fill:#004394;fill-opacity:1"
   id="g36">
<path
   style="fill:#004394;fill-opacity:1"
   inkscape:connector-curvature="0"
   id="path2"
   d="m 186.808,14.146 c 0,-2.418 -3.917,-2.607 -5.602,-2.607 h -5.138 l -3.496,12.497 h 3.833 L 177.5,19.65 c 3.88,-10e-4 9.308,-0.385 9.308,-5.504 z m -4.422,1.779 c -0.438,0.86 -1.653,1.406 -2.612,1.406 h -1.347 l 0.842,-3.723 h 1.053 c 0.947,0 2.233,0.299 2.233,1.447 z" />
<polygon
   style="fill:#004394;fill-opacity:1"
   id="polygon4"
   points="170.086,20.476 170.802,17.869 165.538,17.869 164.863,20.476 " />
<polygon
   style="fill:#004394;fill-opacity:1"
   id="polygon6"
   points="224.8,24.035 229.685,15.097 227.663,24.035 231.075,24.035 234.023,11.538 228.464,11.538 224.252,19.441 223.789,11.538 218.313,11.538 215.365,24.035 218.439,24.035 220.714,15.097 221.178,24.035 " />
<path
   style="fill:#004394;fill-opacity:1"
   inkscape:connector-curvature="0"
   id="path8"
   d="m 192.916,11.538 c -3.228,4.074 -6.112,8.397 -9.309,12.497 h 4.548 l 2.402,-3.559 h 4.843 l 0.548,3.559 h 4.464 c -0.263,-0.271 -2.408,-11.32 -2.526,-12.497 z m -0.801,6.248 2.527,-3.476 0.506,3.476 z" />
<polygon
   style="fill:#004394;fill-opacity:1"
   id="polygon10"
   points="212.754,24.035 213.427,21.344 207.404,21.344 209.679,11.538 205.467,11.538 202.519,24.035 " />
<path
   style="fill:#004394;fill-opacity:1"
   inkscape:connector-curvature="0"
   id="path12"
   d="m 115.078,16.752 -0.589,2.689 h 1.6 l -0.462,1.902 c -0.258,0.247 -1.326,0.332 -1.686,0.332 -1.694,0 -3.243,-0.541 -3.243,-2.483 0,-3.202 2.862,-5.006 5.854,-5.006 1.481,0 2.677,0.441 4.086,0.704 l 0.463,-3.022 c -1.603,-0.078 -3.15,-0.577 -4.802,-0.577 -4.847,0 -9.688,3.067 -9.688,8.233 0,2.98 2.364,4.84 5.307,4.84 h 2.106 c 1.681,0 3.472,-0.319 5.139,-0.537 l 1.601,-7.076 h -5.686 z" />
<path
   style="fill:#004394;fill-opacity:1"
   inkscape:connector-curvature="0"
   id="path14"
   d="m 74.561,14.187 c 1.084,0 2.045,0.37 3.074,0.456 l 0.337,-2.896 c -1.115,-0.136 -2.292,-0.455 -3.411,-0.455 -4.815,0 -9.562,2.996 -9.562,8.11 0,3.037 2.632,4.964 5.602,4.964 h 1.475 c 0.939,0 2.15,-0.164 3.074,-0.33 l 1.011,-3.021 c -0.99,0.216 -2.055,0.456 -3.075,0.456 h -1.474 c -1.462,0 -2.485,-1.263 -2.485,-2.606 -10e-4,-2.889 2.677,-4.678 5.434,-4.678 z" />
<polygon
   style="fill:#004394;fill-opacity:1"
   id="polygon16"
   points="163.853,14.187 164.527,11.538 153.744,11.538 150.753,24.035 161.579,24.035 162.126,21.344 155.555,21.344 156.104,19.111 161.705,19.111 162.252,16.421 156.692,16.421 157.24,14.187 " />
<polygon
   style="fill:#004394;fill-opacity:1"
   id="polygon18"
   points="139.003,11.538 138.455,14.187 142.54,14.187 140.266,24.035 144.352,24.035 146.71,14.187 150.795,14.187 151.513,11.538 " />
<path
   style="fill:#004394;fill-opacity:1"
   inkscape:connector-curvature="0"
   id="path20"
   d="m 87.448,11.291 c -4.844,0 -9.687,3.136 -9.687,8.275 0,3.003 2.938,4.799 5.77,4.799 h 1.643 c 3.642,0 6.96,-2.256 8.171,-5.585 0.192,-0.528 0.505,-1.21 0.505,-1.779 v -1.406 c 0.001,-3.036 -3.865,-4.304 -6.402,-4.304 z m 2.191,5.958 c 0,0.088 -0.188,0.69 -0.225,0.814 -0.446,1.532 -1.054,2.485 -2.626,3.103 -0.343,0.135 -0.819,0.303 -1.193,0.303 h -1.18 c -1.437,0 -2.485,-1.266 -2.485,-2.606 0,-2.619 2.183,-4.676 4.802,-4.676 1.169,0 1.818,0.413 2.528,1.284 0.146,0.179 0.184,0.447 0.378,0.909 v 0.869 z" />
<path
   style="fill:#004394;fill-opacity:1"
   inkscape:connector-curvature="0"
   id="path22"
   d="m 134.664,11.538 h -5.012 c -2.866,4.232 -6.072,8.456 -9.224,12.497 h 4.548 l 2.402,-3.559 h 4.885 l 0.59,3.559 4.389,-0.004 c -0.054,-0.435 -0.337,-1.306 -0.431,-1.735 -0.504,-2.317 -2.042,-8.725 -2.147,-10.758 z m -5.686,6.248 2.401,-3.476 0.674,3.476 z" />
<polygon
   style="fill:#004394;fill-opacity:1"
   id="polygon24"
   points="104.676,24.035 105.349,21.344 99.368,21.344 101.601,11.538 97.557,11.538 94.608,24.035 " />
<polygon
   style="fill:#004394;fill-opacity:1"
   id="polygon26"
   points="268.519,24.035 271.467,11.538 267.383,11.538 264.434,24.035 " />
<path
   style="fill:#004394;fill-opacity:1"
   inkscape:connector-curvature="0"
   id="path28"
   d="m 285.114,11.538 -6.148,9.351 -1.138,-9.351 h -4.297 c 0.137,3.215 1.487,6.411 1.813,9.601 l 0.335,2.896 h 4.887 c 3.064,-4.1 5.78,-8.488 8.97,-12.497 z" />
<polygon
   style="fill:#004394;fill-opacity:1"
   id="polygon30"
   points="261.697,24.035 262.244,21.344 256.22,21.344 258.494,11.538 254.41,11.538 251.461,24.035 " />
<polygon
   style="fill:#004394;fill-opacity:1"
   id="polygon32"
   points="301.794,14.187 302.467,11.538 291.685,11.538 288.736,24.035 299.52,24.035 300.194,21.344 293.497,21.344 294.044,19.111 299.645,19.111 300.194,16.421 294.634,16.421 295.181,14.187 " />
<path
   style="fill:#004394;fill-opacity:1"
   inkscape:connector-curvature="0"
   id="path34"
   d="m 244.385,11.291 c -4.573,0 -9.603,3.041 -9.603,7.985 0,3.176 2.587,5.088 5.728,5.088 h 1.643 c 3.795,0 8.634,-3.306 8.634,-7.364 v -1.406 c 0,-3.093 -3.826,-4.303 -6.402,-4.303 z m -1.854,10.178 h -1.137 c -1.044,0 -2.443,-1.064 -2.443,-2.152 v -0.91 c 0,-1.318 1.503,-3.314 2.696,-3.847 0.586,-0.263 1.384,-0.373 2.021,-0.373 1.079,0 2.111,0.422 2.864,1.903 -0.037,0.254 0.084,0.593 0.084,0.869 10e-4,2.073 -1.8,4.51 -4.085,4.51 z" />
</g>
</g><g
     transform="translate(34.163025,-2.3975033)"
     id="g44">
<g
   id="g42">
<path
   inkscape:connector-curvature="0"
   style="fill:#004394;fill-opacity:1"
   id="path40"
   d="m 2.469,17.081 c 0,0 0.395,-14.323 16.764,-14.521 h 12.276 l -2.751,12.133 -10.127,0.036 c -3.375,0.025 -4.019,2.798 -4.019,2.798 0,0 -0.197,2.92 3.036,3.252 l 9.729,0.004 -2.797,12.336 -5.677,0.017 C 1.941,32.789 2.469,17.081 2.469,17.081 Z m 54.32,0 c 0,0 -0.726,-14.323 -17.095,-14.521 H 34.48 l -2.727,12.133 8.544,0.036 c 3.374,0.025 4.018,2.798 4.018,2.798 0,0 0.197,2.92 -3.037,3.252 l -10.917,0.004 -4.726,20.521 11.551,0.011 1.913,-8.182 0.924,0.002 C 56.987,32.789 56.789,17.081 56.789,17.081 Z" />
</g>
</g></g>
</g>
</svg>